{
    "results": [
        {
            "vote_count": 4368,
            "id": 299537,
            "video": false,
            "vote_average": 7.1,
            "title": "Captain Marvel",
            "popularity": 503.876,
            "poster_path": "/AtsgWhDnHTq68L0lLsUrCnM7TjG.jpg",
            "original_language": "en",
            "original_title": "Captain Marvel",
            "genre_ids": [
                28,
                12,
                878
            ],
            "backdrop_path": "/w2PMyoyLU22YvrGK3smVM9fW1jj.jpg",
            "adult": false,
            "overview": "The story follows Carol Danvers as she becomes one of the universe’s most powerful heroes when Earth is caught in the middle of a galactic war between two alien races. Set in the 1990s, Captain Marvel is an all-new adventure from a previously unseen period in the history of the Marvel Cinematic Universe.",
            "release_date": "2019-03-06"
        },
        {
            "vote_count": 2622,
            "id": 299534,
            "video": false,
            "vote_average": 8.7,
            "title": "Avengers: Endgame",
            "popularity": 418.318,
            "poster_path": "/or06FN3Dka5tukK1e9sl16pB3iy.jpg",
            "original_language": "en",
            "original_title": "Avengers: Endgame",
            "genre_ids": [
                12,
                878,
                28
            ],
            "backdrop_path": "/7RyHsO4yDXtBv1zUU3mTpHeQ0d5.jpg",
            "adult": false,
            "overview": "After the devastating events of Avengers: Infinity War, the universe is in ruins due to the efforts of the Mad Titan, Thanos. With the help of remaining allies, the Avengers must assemble once more in order to undo Thanos' actions and restore order to the universe once and for all, no matter what consequences may be in store.",
            "release_date": "2019-04-24"
        },
        {
            "vote_count": 262,
            "id": 456740,
            "video": false,
            "vote_average": 5.2,
            "title": "Hellboy",
            "popularity": 286.589,
            "poster_path": "/bk8LyaMqUtaQ9hUShuvFznQYQKR.jpg",
            "original_language": "en",
            "original_title": "Hellboy",
            "genre_ids": [
                28,
                12,
                14
            ],
            "backdrop_path": "/5BkSkNtfrnTuKOtTaZhl8avn4wU.jpg",
            "adult": false,
            "overview": "Hellboy comes to England, where he must defeat Nimue, Merlin's consort and the Blood Queen. But their battle will bring about the end of the world, a fate he desperately tries to turn away.",
            "release_date": "2019-04-10"
        },
        {
            "vote_count": 622,
            "id": 537915,
            "video": false,
            "vote_average": 6.3,
            "title": "After",
            "popularity": 256.089,
            "poster_path": "/u3B2YKUjWABcxXZ6Nm9h10hLUbh.jpg",
            "original_language": "en",
            "original_title": "After",
            "genre_ids": [
                18,
                10749
            ],
            "backdrop_path": "/8lESY7UGpOsbL2caib9Qe4bOebF.jpg",
            "adult": false,
            "overview": "A young woman falls for a guy with a dark secret and the two embark on a rocky relationship.",
            "release_date": "2019-04-11"
        },
        {
            "vote_count": 1289,
            "id": 287947,
            "video": false,
            "vote_average": 7.2,
            "title": "Shazam!",
            "popularity": 250.916,
            "poster_path": "/xnopI5Xtky18MPhK40cZAGAOVeV.jpg",
            "original_language": "en",
            "original_title": "Shazam!",
            "genre_ids": [
                35,
                12,
                14
            ],
            "backdrop_path": "/bi4jh0Kt0uuZGsGJoUUfqmbrjQg.jpg",
            "adult": false,
            "overview": "A boy is given the ability to become an adult superhero in times of need with a single magic word.",
            "release_date": "2019-03-23"
        },
        {
            "vote_count": 181,
            "id": 487297,
            "video": false,
            "vote_average": 5.8,
            "title": "What Men Want",
            "popularity": 158.1,
            "poster_path": "/30IiwvIRqPGjUV0bxJkZfnSiCL.jpg",
            "original_language": "en",
            "original_title": "What Men Want",
            "genre_ids": [
                35,
                14,
                10749
            ],
            "backdrop_path": "/umecegsPpKr2ZXA62Da9CQBVoIO.jpg",
            "adult": false,
            "overview": "Magically able to hear what men are thinking, a sports agent uses her newfound ability to turn the tables on her overbearing male colleagues.",
            "release_date": "2019-02-08"
        },
        {
            "vote_count": 1616,
            "id": 166428,
            "video": false,
            "vote_average": 7.6,
            "title": "How to Train Your Dragon: The Hidden World",
            "popularity": 142.457,
            "poster_path": "/xvx4Yhf0DVH8G4LzNISpMfFBDy2.jpg",
            "original_language": "en",
            "original_title": "How to Train Your Dragon: The Hidden World",
            "genre_ids": [
                16,
                10751,
                12
            ],
            "backdrop_path": "/lFwykSz3Ykj1Q3JXJURnGUTNf1o.jpg",
            "adult": false,
            "overview": "As Hiccup fulfills his dream of creating a peaceful dragon utopia, Toothless’ discovery of an untamed, elusive mate draws the Night Fury away. When danger mounts at home and Hiccup’s reign as village chief is tested, both dragon and rider must make impossible decisions to save their kind.",
            "release_date": "2019-01-03"
        },
        {
            "vote_count": 323,
            "id": 438650,
            "video": false,
            "vote_average": 5.2,
            "title": "Cold Pursuit",
            "popularity": 139.429,
            "poster_path": "/hXgmWPd1SuujRZ4QnKLzrj79PAw.jpg",
            "original_language": "en",
            "original_title": "Cold Pursuit",
            "genre_ids": [
                28,
                18,
                53,
                80
            ],
            "backdrop_path": "/1OjgfTVfXushKmdcQ2Xxn9RbNte.jpg",
            "adult": false,
            "overview": "Nels Coxman's quiet life comes crashing down when his beloved son dies under mysterious circumstances. His search for the truth soon becomes a quest for revenge as he seeks coldblooded justice against a drug lord and his inner circle.",
            "release_date": "2019-02-07"
        },
        {
            "vote_count": 7,
            "id": 576393,
            "video": false,
            "vote_average": 6,
            "title": "Fall in Love at First Kiss",
            "popularity": 122.37,
            "poster_path": "/wtaSH8MfJSCEIrrEX9SQuHdU5sl.jpg",
            "original_language": "zh",
            "original_title": "一吻定情",
            "genre_ids": [
                10749,
                35
            ],
            "backdrop_path": "/yY7kr7Rgvo8W0Kr3U0bMV8Zq1qM.jpg",
            "adult": false,
            "overview": "After an earthquake destroys Xiang Qin's house, she and her father move in with the family of her father's college buddy. To her surprise, her new kind and amicable aunt and uncle are the parents of her cold and distant schoolmate, Jiang Zhi Shu, a genius with an IQ of 200 whom not too long ago rejected her when she confessed her feelings for him. Will the close proximity give her a second chance to win Zhi Shu's heart? Or will her love for him end under his cold words?",
            "release_date": "2019-02-14"
        },
        {
            "vote_count": 1017,
            "id": 329996,
            "video": false,
            "vote_average": 6.7,
            "title": "Dumbo",
            "popularity": 121.303,
            "poster_path": "/A7XkpLfNH0El2yyDLc4b0KLAKvE.jpg",
            "original_language": "en",
            "original_title": "Dumbo",
            "genre_ids": [
                12,
                10751,
                14
            ],
            "backdrop_path": "/5tFt6iuGnKapHl5tw0X0cKcnuVo.jpg",
            "adult": false,
            "overview": "A young elephant, whose oversized ears enable him to fly, helps save a struggling circus, but when the circus plans a new venture, Dumbo and his friends discover dark secrets beneath its shiny veneer.",
            "release_date": "2019-03-27"
        },
        {
            "vote_count": 73,
            "id": 376865,
            "video": false,
            "vote_average": 6,
            "title": "High Life",
            "popularity": 113.475,
            "poster_path": "/wElOvH7H6sLElsTOLu1MY6oWRUx.jpg",
            "original_language": "en",
            "original_title": "High Life",
            "genre_ids": [
                878,
                18,
                9648,
                53
            ],
            "backdrop_path": "/6gHdAO1Lvk9bjzhY4hX3wVRkAhF.jpg",
            "adult": false,
            "overview": "Monte and his baby daughter are the last survivors of a damned and dangerous mission to the outer reaches of the solar system. They must now rely on each other to survive as they hurtle toward the oblivion of a black hole.",
            "release_date": "2018-11-07"
        },
        {
            "vote_count": 1188,
            "id": 458723,
            "video": false,
            "vote_average": 7.2,
            "title": "Us",
            "popularity": 111.937,
            "poster_path": "/ux2dU1jQ2ACIMShzB3yP93Udpzc.jpg",
            "original_language": "en",
            "original_title": "Us",
            "genre_ids": [
                53,
                27
            ],
            "backdrop_path": "/jNUCddkM1fjYcFIcEwFjc7s2H4V.jpg",
            "adult": false,
            "overview": "Husband and wife Gabe and Adelaide Wilson take their kids to their beach house expecting to unplug and unwind with friends. But as night descends, their serenity turns to tension and chaos when some shocking visitors arrive uninvited.",
            "release_date": "2019-03-14"
        },
        {
            "vote_count": 2101,
            "id": 424783,
            "video": false,
            "vote_average": 6.4,
            "title": "Bumblebee",
            "popularity": 104.51,
            "poster_path": "/fw02ONlDhrYjTSZV8XO6hhU3ds3.jpg",
            "original_language": "en",
            "original_title": "Bumblebee",
            "genre_ids": [
                28,
                12,
                878
            ],
            "backdrop_path": "/wtZj5nn6hVwgakPdg6y6gm3eFXU.jpg",
            "adult": false,
            "overview": "On the run in the year 1987, Bumblebee finds refuge in a junkyard in a small Californian beach town. Charlie, on the cusp of turning 18 and trying to find her place in the world, discovers Bumblebee, battle-scarred and broken.  When Charlie revives him, she quickly learns this is no ordinary yellow VW bug.",
            "release_date": "2018-12-15"
        },
        {
            "vote_count": 980,
            "id": 522681,
            "video": false,
            "vote_average": 6.3,
            "title": "Escape Room",
            "popularity": 99.555,
            "poster_path": "/8Ls1tZ6qjGzfGHjBB7ihOnf7f0b.jpg",
            "original_language": "en",
            "original_title": "Escape Room",
            "genre_ids": [
                53
            ],
            "backdrop_path": "/mWLljCmpqlcYQh7uh51BBMwCZwN.jpg",
            "adult": false,
            "overview": "Six strangers find themselves in circumstances beyond their control, and must use their wits to survive.",
            "release_date": "2019-01-03"
        },
        {
            "vote_count": 413,
            "id": 280217,
            "video": false,
            "vote_average": 6.7,
            "title": "The Lego Movie 2: The Second Part",
            "popularity": 84.384,
            "poster_path": "/QTESAsBVZwjtGJNDP7utiGV37z.jpg",
            "original_language": "en",
            "original_title": "The Lego Movie 2: The Second Part",
            "genre_ids": [
                28,
                12,
                16,
                35,
                10751,
                878,
                14
            ],
            "backdrop_path": "/8kPozGb4BDrcWBSsGPrkULG2tP9.jpg",
            "adult": false,
            "overview": "It's been five years since everything was awesome and the citizens are facing a huge new threat: LEGO DUPLO® invaders from outer space, wrecking everything faster than they can rebuild.",
            "release_date": "2019-01-26"
        },
        {
            "vote_count": 115,
            "id": 532671,
            "video": false,
            "vote_average": 6,
            "title": "The Prodigy",
            "popularity": 81.56,
            "poster_path": "/yyejodyk3lWncVjVhhrEkPctY9o.jpg",
            "original_language": "en",
            "original_title": "The Prodigy",
            "genre_ids": [
                27,
                53
            ],
            "backdrop_path": "/oxTgovZ3TQ8LLxifUm16ROMULP5.jpg",
            "adult": false,
            "overview": "A mother concerned about her young son's disturbing behavior thinks something supernatural may be affecting him.",
            "release_date": "2019-02-06"
        },
        {
            "vote_count": 112,
            "id": 453755,
            "video": false,
            "vote_average": 6.4,
            "title": "Arctic",
            "popularity": 75.261,
            "poster_path": "/nuymiuxKV2uEyM47rBJLbrCulC8.jpg",
            "original_language": "en",
            "original_title": "Arctic",
            "genre_ids": [
                53,
                18,
                12
            ],
            "backdrop_path": "/adNNHvX31BATsQjSBurupj0gt30.jpg",
            "adult": false,
            "overview": "A man stranded in the Arctic is finally about to receive his long awaited rescue. However, after a tragic accident, his opportunity is lost and he must then decide whether to remain in the relative safety of his camp or embark on a deadly trek through the unknown for potential salvation.",
            "release_date": "2018-07-26"
        },
        {
            "vote_count": 1345,
            "id": 504172,
            "video": false,
            "vote_average": 6.5,
            "title": "The Mule",
            "popularity": 67.729,
            "poster_path": "/oeZh7yEz3PMnZLgBPhrafFHRbVz.jpg",
            "original_language": "en",
            "original_title": "The Mule",
            "genre_ids": [
                80,
                18,
                53
            ],
            "backdrop_path": "/bTeRgkAavyw1eCtSkaww18wLYNP.jpg",
            "adult": false,
            "overview": "Earl Stone, a man in his 80s, is broke, alone, and facing foreclosure of his business when he is offered a job that simply requires him to drive. Easy enough, but, unbeknownst to Earl, he’s just signed on as a drug courier for a Mexican cartel. He does so well that his cargo increases exponentially, and Earl hit the radar of hard-charging DEA agent Colin Bates.",
            "release_date": "2018-12-14"
        },
        {
            "vote_count": 7069,
            "id": 424694,
            "video": false,
            "vote_average": 8.1,
            "title": "Bohemian Rhapsody",
            "popularity": 64.855,
            "poster_path": "/lHu1wtNaczFPGFDTrjCSzeLPTKN.jpg",
            "original_language": "en",
            "original_title": "Bohemian Rhapsody",
            "genre_ids": [
                18,
                10402
            ],
            "backdrop_path": "/xcaSYLBhmDzJ6P14bcKe0KTh3QV.jpg",
            "adult": false,
            "overview": "Singer Freddie Mercury, guitarist Brian May, drummer Roger Taylor and bass guitarist John Deacon take the music world by storm when they form the rock 'n' roll band Queen in 1970. Hit songs become instant classics. When Mercury's increasingly wild lifestyle starts to spiral out of control, Queen soon faces its greatest challenge yet – finding a way to keep the band together amid the success and excess.",
            "release_date": "2018-10-24"
        },
        {
            "vote_count": 0,
            "id": 566555,
            "video": false,
            "vote_average": 0,
            "title": "Detective Conan: The Fist of Blue Sapphire",
            "popularity": 61.513,
            "poster_path": "/1GyvpwvgswOrHvxjnw2FBLNkTyo.jpg",
            "original_language": "ja",
            "original_title": "名探偵コナン 紺青の拳（フィスト）",
            "genre_ids": [
                16,
                28,
                18,
                9648,
                35
            ],
            "backdrop_path": "/wf6VDSi4aFCZfuD8sX8JAKLfJ5m.jpg",
            "adult": false,
            "overview": "23rd Detective Conan Movie.",
            "release_date": "2019-04-12"
        }
    ],
    "page": 1,
    "total_results": 1125,
    "dates": {
        "maximum": "2019-04-27",
        "minimum": "2019-03-10"
    },
    "total_pages": 57
}