{
    "results": [
        {
            "vote_count": 2622,
            "id": 299534,
            "video": false,
            "vote_average": 8.7,
            "title": "Avengers: Endgame",
            "popularity": 418.318,
            "poster_path": "/or06FN3Dka5tukK1e9sl16pB3iy.jpg",
            "original_language": "en",
            "original_title": "Avengers: Endgame",
            "genre_ids": [
                12,
                878,
                28
            ],
            "backdrop_path": "/7RyHsO4yDXtBv1zUU3mTpHeQ0d5.jpg",
            "adult": false,
            "overview": "After the devastating events of Avengers: Infinity War, the universe is in ruins due to the efforts of the Mad Titan, Thanos. With the help of remaining allies, the Avengers must assemble once more in order to undo Thanos' actions and restore order to the universe once and for all, no matter what consequences may be in store.",
            "release_date": "2019-04-24"
        },
        {
            "vote_count": 262,
            "id": 456740,
            "video": false,
            "vote_average": 5.2,
            "title": "Hellboy",
            "popularity": 286.589,
            "poster_path": "/bk8LyaMqUtaQ9hUShuvFznQYQKR.jpg",
            "original_language": "en",
            "original_title": "Hellboy",
            "genre_ids": [
                28,
                12,
                14
            ],
            "backdrop_path": "/5BkSkNtfrnTuKOtTaZhl8avn4wU.jpg",
            "adult": false,
            "overview": "Hellboy comes to England, where he must defeat Nimue, Merlin's consort and the Blood Queen. But their battle will bring about the end of the world, a fate he desperately tries to turn away.",
            "release_date": "2019-04-10"
        },
        {
            "vote_count": 622,
            "id": 537915,
            "video": false,
            "vote_average": 6.3,
            "title": "After",
            "popularity": 256.089,
            "poster_path": "/u3B2YKUjWABcxXZ6Nm9h10hLUbh.jpg",
            "original_language": "en",
            "original_title": "After",
            "genre_ids": [
                18,
                10749
            ],
            "backdrop_path": "/8lESY7UGpOsbL2caib9Qe4bOebF.jpg",
            "adult": false,
            "overview": "A young woman falls for a guy with a dark secret and the two embark on a rocky relationship.",
            "release_date": "2019-04-11"
        },
        {
            "vote_count": 181,
            "id": 487297,
            "video": false,
            "vote_average": 5.8,
            "title": "What Men Want",
            "popularity": 158.1,
            "poster_path": "/30IiwvIRqPGjUV0bxJkZfnSiCL.jpg",
            "original_language": "en",
            "original_title": "What Men Want",
            "genre_ids": [
                35,
                14,
                10749
            ],
            "backdrop_path": "/umecegsPpKr2ZXA62Da9CQBVoIO.jpg",
            "adult": false,
            "overview": "Magically able to hear what men are thinking, a sports agent uses her newfound ability to turn the tables on her overbearing male colleagues.",
            "release_date": "2019-02-08"
        },
        {
            "vote_count": 73,
            "id": 376865,
            "video": false,
            "vote_average": 6,
            "title": "High Life",
            "popularity": 113.475,
            "poster_path": "/wElOvH7H6sLElsTOLu1MY6oWRUx.jpg",
            "original_language": "en",
            "original_title": "High Life",
            "genre_ids": [
                878,
                18,
                9648,
                53
            ],
            "backdrop_path": "/6gHdAO1Lvk9bjzhY4hX3wVRkAhF.jpg",
            "adult": false,
            "overview": "Monte and his baby daughter are the last survivors of a damned and dangerous mission to the outer reaches of the solar system. They must now rely on each other to survive as they hurtle toward the oblivion of a black hole.",
            "release_date": "2018-11-07"
        },
        {
            "vote_count": 115,
            "id": 532671,
            "video": false,
            "vote_average": 6,
            "title": "The Prodigy",
            "popularity": 81.56,
            "poster_path": "/yyejodyk3lWncVjVhhrEkPctY9o.jpg",
            "original_language": "en",
            "original_title": "The Prodigy",
            "genre_ids": [
                27,
                53
            ],
            "backdrop_path": "/oxTgovZ3TQ8LLxifUm16ROMULP5.jpg",
            "adult": false,
            "overview": "A mother concerned about her young son's disturbing behavior thinks something supernatural may be affecting him.",
            "release_date": "2019-02-06"
        },
        {
            "vote_count": 112,
            "id": 453755,
            "video": false,
            "vote_average": 6.4,
            "title": "Arctic",
            "popularity": 75.261,
            "poster_path": "/nuymiuxKV2uEyM47rBJLbrCulC8.jpg",
            "original_language": "en",
            "original_title": "Arctic",
            "genre_ids": [
                53,
                18,
                12
            ],
            "backdrop_path": "/adNNHvX31BATsQjSBurupj0gt30.jpg",
            "adult": false,
            "overview": "A man stranded in the Arctic is finally about to receive his long awaited rescue. However, after a tragic accident, his opportunity is lost and he must then decide whether to remain in the relative safety of his camp or embark on a deadly trek through the unknown for potential salvation.",
            "release_date": "2018-07-26"
        },
        {
            "vote_count": 443,
            "id": 527261,
            "video": false,
            "vote_average": 0,
            "title": "The Silence",
            "popularity": 62.765,
            "poster_path": "/lTVOquzxw2DPF3MKuYd1ynz9F6H.jpg",
            "original_language": "en",
            "original_title": "The Silence",
            "genre_ids": [
                27,
                18,
                53,
                14
            ],
            "backdrop_path": "/iHJQIKSLHN2mUUWySpj2MO5HVtS.jpg",
            "adult": false,
            "overview": "With the world under attack by deadly creatures who hunt by sound, a teen and her family seek refuge outside the city and encounter a mysterious cult.",
            "release_date": "2019-05-16"
        },
        {
            "vote_count": 215,
            "id": 300681,
            "video": false,
            "vote_average": 5.7,
            "title": "Replicas",
            "popularity": 60.062,
            "poster_path": "/hhPBTAn9b4TYOxc1JYNsX4BFAlW.jpg",
            "original_language": "en",
            "original_title": "Replicas",
            "genre_ids": [
                53,
                878
            ],
            "backdrop_path": "/sHPfBVFq7dlnXCz1zFdbEdwcBDJ.jpg",
            "adult": false,
            "overview": "A scientist becomes obsessed with returning his family to normalcy after a terrible accident.",
            "release_date": "2018-10-25"
        },
        {
            "vote_count": 35,
            "id": 458253,
            "video": false,
            "vote_average": 7.1,
            "title": "Missing Link",
            "popularity": 49.045,
            "poster_path": "/gEkKHiiQRVUSX15Iwo8VFydXrtu.jpg",
            "original_language": "en",
            "original_title": "Missing Link",
            "genre_ids": [
                16,
                35,
                12,
                14,
                10751
            ],
            "backdrop_path": "/ob4XnKBqAh1rg381hayebJx6EkE.jpg",
            "adult": false,
            "overview": "The charismatic Sir Lionel Frost considers himself to be the world's foremost investigator of myths and monsters. Trouble is, none of his small-minded, high-society peers seems to recognize this. Hoping to finally gain acceptance from these fellow adventurers, Sir Lionel travels to the Pacific Northwest to prove the existence of a legendary creature known as the missing link.",
            "release_date": "2019-04-04"
        },
        {
            "vote_count": 325,
            "id": 157433,
            "video": false,
            "vote_average": 6,
            "title": "Pet Sematary",
            "popularity": 48.816,
            "poster_path": "/7SPhr7Qj39vbnfF9O2qHRYaKHAL.jpg",
            "original_language": "en",
            "original_title": "Pet Sematary",
            "genre_ids": [
                27,
                53
            ],
            "backdrop_path": "/n2aX63BmW7zIKgKJ58e6rKlSsdi.jpg",
            "adult": false,
            "overview": "Louis Creed, his wife Rachel and their two children Gage and Ellie move to a rural home where they are welcomed and enlightened about the eerie 'Pet Sematary' located nearby. After the tragedy of their cat being killed by a truck, Louis resorts to burying it in the mysterious pet cemetery, which is definitely not as it seems, as it proves to the Creeds that sometimes dead is better.",
            "release_date": "2019-04-04"
        },
        {
            "vote_count": 20,
            "id": 514439,
            "video": false,
            "vote_average": 7.7,
            "title": "Breakthrough",
            "popularity": 44.634,
            "poster_path": "/t58dx7JIgchr9If5uxn3NmHaHoS.jpg",
            "original_language": "en",
            "original_title": "Breakthrough",
            "genre_ids": [
                18
            ],
            "backdrop_path": "/6jaNHf9ja84YG3KWMDK1nOnvGDg.jpg",
            "adult": false,
            "overview": "When he was 14, Smith drowned in Lake St. Louis and was dead for nearly an hour. According to reports at the time, CPR was performed 27 minutes to no avail. Then the youth's mother, Joyce Smith, entered the room, praying loudly. Suddenly, there was a pulse, and Smith came around.",
            "release_date": "2019-04-11"
        },
        {
            "vote_count": 467,
            "id": 440161,
            "video": false,
            "vote_average": 7.1,
            "title": "The Sisters Brothers",
            "popularity": 44.011,
            "poster_path": "/7Tl2nZ6uvmxwK14Skbf9VFHEHpX.jpg",
            "original_language": "en",
            "original_title": "The Sisters Brothers",
            "genre_ids": [
                35,
                18,
                37
            ],
            "backdrop_path": "/iOa6iD7t7nv6wghPuMdZCaQSDJh.jpg",
            "adult": false,
            "overview": "Oregon, 1851. Hermann Kermit Warm, a chemist and aspiring gold prospector, keeps a profitable secret that the Commodore wants to know, so he sends the Sisters brothers, two notorious assassins, to capture him on his way to California.",
            "release_date": "2018-09-19"
        },
        {
            "vote_count": 1,
            "id": 447404,
            "video": false,
            "vote_average": 10,
            "title": "Pokémon: Detective Pikachu",
            "popularity": 41.365,
            "poster_path": "/wgQ7APnFpf1TuviKHXeEe3KnsTV.jpg",
            "original_language": "en",
            "original_title": "Pokémon: Detective Pikachu",
            "genre_ids": [
                9648,
                10751,
                80,
                14
            ],
            "backdrop_path": "/yXybBEC45p84D0Ky7GmQQYrclVr.jpg",
            "adult": false,
            "overview": "In a world where people collect pocket-size monsters (pokemon) to do battle, a boy comes across an intelligent monster who seeks to be a detective.",
            "release_date": "2019-05-03"
        },
        {
            "vote_count": 49,
            "id": 500904,
            "video": false,
            "vote_average": 4.6,
            "title": "A Vigilante",
            "popularity": 33.706,
            "poster_path": "/avoKZfgBzyBGJsrAr2WQOwZK978.jpg",
            "original_language": "en",
            "original_title": "A Vigilante",
            "genre_ids": [
                53,
                18
            ],
            "backdrop_path": "/kReEky4XRCAq22H5V37kDcNY9dj.jpg",
            "adult": false,
            "overview": "A once abused woman, Sadie, devotes herself to ridding victims of their domestic abusers while hunting down the husband she must kill to truly be free.",
            "release_date": "2019-03-29"
        },
        {
            "vote_count": 2,
            "id": 460070,
            "video": false,
            "vote_average": 0,
            "title": "J.T. LeRoy",
            "popularity": 28.655,
            "poster_path": "/43ffZhMCWQhzMneGP4kDWoPV48X.jpg",
            "original_language": "en",
            "original_title": "J.T. LeRoy",
            "genre_ids": [
                18
            ],
            "backdrop_path": "/5IpFLdulLkJyxvt8vHTZfp84C1i.jpg",
            "adult": false,
            "overview": "A young woman named Savannah Knoop spends six years pretending to be a transgender writer named JT Leroy, the made-up literary persona of her sister-in-law.",
            "release_date": "2019-04-26"
        },
        {
            "vote_count": 79,
            "id": 400157,
            "video": false,
            "vote_average": 6.2,
            "title": "Wonder Park",
            "popularity": 27.732,
            "poster_path": "/8KomINZhIuJeB4oB7k7tkq8tmE.jpg",
            "original_language": "en",
            "original_title": "Wonder Park",
            "genre_ids": [
                35,
                16,
                12,
                10751,
                14
            ],
            "backdrop_path": "/nJyAdKPnW15IAvC6sLBTE0lp6Dv.jpg",
            "adult": false,
            "overview": "The story of a magnificent amusement park where the imagination of a wildly creative girl named June comes alive.",
            "release_date": "2019-03-14"
        },
        {
            "vote_count": 0,
            "id": 515048,
            "video": false,
            "vote_average": 0,
            "title": "Jessica Forever",
            "popularity": 27.618,
            "poster_path": "/4fK6hEgE22DLAptQa1QGxqQygyF.jpg",
            "original_language": "fr",
            "original_title": "Jessica Forever",
            "genre_ids": [
                18
            ],
            "backdrop_path": null,
            "adult": false,
            "overview": "Jessica is the leader of a group of lost boys with a violent past who now seek peace and harmony. She is the only one to have ever brought them love and understanding. They only wish to create a world where they can live in peace together, and forever.",
            "release_date": "2019-05-01"
        },
        {
            "vote_count": 260,
            "id": 452832,
            "video": false,
            "vote_average": 5.1,
            "title": "Serenity",
            "popularity": 27.095,
            "poster_path": "/hgWAcic93phg4DOuQ8NrsgQWiqu.jpg",
            "original_language": "en",
            "original_title": "Serenity",
            "genre_ids": [
                53,
                18,
                9648,
                878
            ],
            "backdrop_path": "/oOROXoQ402tHgK6NowmMUSLffkW.jpg",
            "adult": false,
            "overview": "Baker Dill is a fishing boat captain leading tours off a tranquil, tropical enclave called Plymouth Island. His quiet life is shattered, however, when his ex-wife Karen tracks him down with a desperate plea for help.",
            "release_date": "2019-01-24"
        },
        {
            "vote_count": 114,
            "id": 498248,
            "video": false,
            "vote_average": 7.7,
            "title": "Mia and the White Lion",
            "popularity": 25.893,
            "poster_path": "/zXfwBeYe0RnqsJ0dnBoFTB4SSrG.jpg",
            "original_language": "fr",
            "original_title": "Mia et le lion blanc",
            "genre_ids": [
                12,
                18,
                10751
            ],
            "backdrop_path": "/aiyXOx5rU7UqYbToD3yDqoFY1gD.jpg",
            "adult": false,
            "overview": "A young girl from London moves to Africa with her parents where she befriends a lion cub.",
            "release_date": "2018-12-26"
        }
    ],
    "page": 1,
    "total_results": 375,
    "dates": {
        "maximum": "2019-05-25",
        "minimum": "2019-04-28"
    },
    "total_pages": 19
}